…
    ## Rows: 500 Columns: 9

    ## -- Column specification --------------------------------------------------------
    ## Delimiter: ","
    ## dbl (9): Serial No., GRE Score, TOEFL Score, University Rating, SOP, LOR, CG...

    ## 
    ## i Use `spec()` to retrieve the full column specification for this data.
    ## i Specify the column types or set `show_col_types = FALSE` to quiet this message.

``` r
admission
```

    ## # A tibble: 500 x 9
    ##    `Serial No.` `GRE Score` `TOEFL Score` `University Rating`   SOP   LOR  CGPA
    ##           <dbl>       <dbl>         <dbl>               <dbl> <dbl> <dbl> <dbl>
    ##  1            1         337           118                   4   4.5   4.5  9.65
    ##  2            2         324           107                   4   4     4.5  8.87
    ##  3            3         316           104                   3   3     3.5  8   
    ##  4            4         322           110                   3   3.5   2.5  8.67
    ##  5            5         314           103                   2   2     3    8.21
    ##  6            6         330           115                   5   4.5   3    9.34
    ##  7            7         321           109                   3   3     4    8.2 
    ##  8            8         308           101                   2   3     4    7.9 
    ##  9            9         302           102                   1   2     1.5  8   
    ## 10           10         323           108                   3   3.5   3    8.6 
    ## # ... with 490 more rows, and 2 more variables: Research <dbl>,
    ## #   Chance of Admit <dbl>
…
# Data wrangling

``` r
admission <- admission %>% 
  mutate(`University Rating` = as.factor(`University Rating`)) %>% 
  select(-`Serial No.`)

admission
```

    ## # A tibble: 500 x 8
    ##    `GRE Score` `TOEFL Score` `University Rating`   SOP   LOR  CGPA Research
    ##          <dbl>         <dbl> <fct>               <dbl> <dbl> <dbl>    <dbl>
    ##  1         337           118 4                     4.5   4.5  9.65        1
    ##  2         324           107 4                     4     4.5  8.87        1
    ##  3         316           104 3                     3     3.5  8           1
    ##  4         322           110 3                     3.5   2.5  8.67        1
    ##  5         314           103 2                     2     3    8.21        0
    ##  6         330           115 5                     4.5   3    9.34        1
    ##  7         321           109 3                     3     4    8.2         1
    ##  8         308           101 2                     3     4    7.9         0
    ##  9         302           102 1                     2     1.5  8           0
    ## 10         323           108 3                     3.5   3    8.6         0
    ## # ... with 490 more rows, and 1 more variable: Chance of Admit <dbl>
…
